{
  "$schema" : "http://json-schema.org/draft-07/schema#",
  "title" : "Distance Table",
  "type" : "array",
  "items" : {
    "type" : "object",
    "properties" : {
    "id" : {
      "type" : "number"
    },
    "city" : {
      "type" : "string"
    },
    "lat" : {
      "type" : "number"
    },
    "lon" : {
      "type" : "number"
    },
    "country" : {
      "type" : "string"
    }
   }
  }
}
